<svg width="15" height="16" viewBox="0 0 15 16" fill="none" xmlns="http://www.w3.org/2000/svg">
<path d="M13.75 8C13.75 11.45 10.95 14.25 7.5 14.25C4.05 14.25 1.25 11.45 1.25 8C1.25 4.55 4.05 1.75 7.5 1.75C10.95 1.75 13.75 4.55 13.75 8Z" stroke="#004CFF" stroke-linecap="round" stroke-linejoin="round"/>
<path d="M9.81855 9.98711L7.88105 8.83086C7.54355 8.63086 7.26855 8.14961 7.26855 7.75586V5.19336" stroke="#004CFF" stroke-linecap="round" stroke-linejoin="round"/>
</svg>
